<svg width="22" height="22" viewBox="0 0 22 22" fill="none" xmlns="http://www.w3.org/2000/svg">
<path d="M13.7493 15.5832H15.5827V12.8332H16.4993V10.9998L15.5827 6.4165H1.83268L0.916016 10.9998V12.8332H1.83268V18.3332H10.0827V12.8332H13.7493V15.5832ZM8.24935 16.4998H3.66602V12.8332H8.24935V16.4998Z" fill="#EF3A36"/>
<path d="M15.582 3.6665H1.83203V5.49984H15.582V3.6665Z" fill="#EF3A36"/>
<path d="M18.3333 16.5V13.75H16.5V16.5H13.75V18.3333H16.5V21.0833H18.3333V18.3333H21.0833V16.5H18.3333Z" fill="#EF3A36"/>
</svg>
