<svg width="14" height="14" viewBox="0 0 14 14" fill="none" xmlns="http://www.w3.org/2000/svg">
<path d="M13.0732 4.47266H0.171875V5.01012C0.171875 5.29533 0.285171 5.56885 0.48684 5.77052C0.688509 5.97219 0.962031 6.08549 1.24723 6.08549H2.86006C3.14527 6.08549 3.41879 5.97219 3.62046 5.77052C3.82213 5.56885 3.93542 5.29533 3.93542 5.01012C3.93542 5.29533 4.04872 5.56885 4.25039 5.77052C4.45206 5.97219 4.72558 6.08549 5.01078 6.08549H8.23686C8.52206 6.08549 8.79558 5.97219 8.99725 5.77052C9.19892 5.56885 9.31222 5.29533 9.31222 5.01012C9.31222 5.29533 9.42552 5.56885 9.62718 5.77052C9.82885 5.97219 10.1024 6.08549 10.3876 6.08549H12.0004C12.2856 6.08549 12.5591 5.97219 12.7608 5.77052C12.9625 5.56885 13.0758 5.29533 13.0758 5.01012V4.47266H13.0732Z" fill="#9D9D9D"/>
<path d="M12.9433 3.93542L11.9793 0.560422C11.947 0.448353 11.8791 0.349839 11.7858 0.279748C11.6926 0.209657 11.5791 0.171794 11.4625 0.171875H9L9.75262 3.93542H12.9433Z" fill="#D61229"/>
<path d="M4.24795 0.171875H1.78547C1.66867 0.171873 1.55505 0.209918 1.4618 0.280253C1.36856 0.350588 1.30076 0.449383 1.26867 0.561687L0.304688 3.93669H3.49533L4.24795 0.171875Z" fill="#D61229"/>
<path d="M7.90394 0.171875H5.34442L4.5918 3.93542H8.65656L7.90394 0.171875Z" fill="#D61229"/>
<path d="M10.3868 6.62366C9.98978 6.62401 9.6067 6.47733 9.31144 6.21191C9.01618 6.47733 8.63309 6.62401 8.23608 6.62366H5.01211C4.61509 6.62401 4.23201 6.47733 3.93675 6.21191C3.64149 6.47733 3.25841 6.62401 2.86139 6.62366H1.24645C1.06324 6.62325 0.881448 6.59143 0.708984 6.52959V12.5379C0.708984 12.6805 0.76561 12.8172 0.866405 12.918C0.9672 13.0188 1.10391 13.0754 1.24645 13.0754H2.32181V8.23649C2.32181 8.1658 2.33576 8.09581 2.36285 8.03052C2.38994 7.96523 2.42964 7.90592 2.47968 7.856C2.52972 7.80607 2.58912 7.76651 2.65448 7.73957C2.71983 7.71264 2.78986 7.69886 2.86055 7.69902H5.54789C5.69044 7.69902 5.82714 7.75565 5.92794 7.85645C6.02873 7.95724 6.08536 8.09395 6.08536 8.23649V13.0754H11.9996C12.1422 13.0754 12.2789 13.0188 12.3797 12.918C12.4805 12.8172 12.5371 12.6805 12.5371 12.5379V6.52959C12.3646 6.59143 12.1828 6.62325 11.9996 6.62366H10.3868ZM10.9243 9.84974C10.9243 9.99229 10.8676 10.129 10.7668 10.2298C10.666 10.3306 10.5293 10.3872 10.3868 10.3872H7.69861C7.55606 10.3872 7.41936 10.3306 7.31856 10.2298C7.21777 10.129 7.16114 9.99229 7.16114 9.84974V8.23649C7.16114 8.09395 7.21777 7.95724 7.31856 7.85645C7.41936 7.75565 7.55606 7.69902 7.69861 7.69902H10.3868C10.5293 7.69902 10.666 7.75565 10.7668 7.85645C10.8676 7.95724 10.9243 8.09395 10.9243 8.23649V9.84974Z" fill="#D61229"/>
</svg>
