<svg width="14" height="18" viewBox="0 0 14 18" fill="none" xmlns="http://www.w3.org/2000/svg">
<path d="M2.00065 0.666504C1.08877 0.666504 0.333984 1.42129 0.333984 2.33317V15.6665C0.333984 16.5784 1.08877 17.3332 2.00065 17.3332H12.0007C12.9125 17.3332 13.6673 16.5784 13.6673 15.6665V5.6665L8.66732 0.666504H2.00065ZM2.00065 2.33317H7.83398V6.49984H12.0007V15.6665H2.00065V2.33317ZM3.66732 8.99984V10.6665H10.334V8.99984H3.66732ZM3.66732 12.3332V13.9998H10.334V12.3332H3.66732Z" fill="white"/>
</svg>
