<svg width="170" height="154" viewBox="0 0 170 154" fill="none" xmlns="http://www.w3.org/2000/svg">
<path d="M68.2572 147.353H136.687C149.866 147.353 160.546 138.822 165.891 128.158C168.615 122.762 170.018 116.875 170 110.919C169.935 103.764 164.189 96.6266 160.855 90.2702C157.092 83.0953 153.56 74.8566 153.956 66.533C154.414 56.9273 161.033 48.9362 162.774 39.6306C163.593 34.8539 163.268 29.9691 161.824 25.3213C160.379 20.6734 157.849 16.3761 154.414 12.733C142.763 0.518841 122.314 -1.57032 107.842 7.46282C98.5956 13.2345 91.7117 21.4702 83.7485 28.568C72.8783 38.2567 58.5036 42.5331 43.9308 44.8133C30.036 46.9874 16.2465 48.8404 8.41069 61.217C-3.95163 80.7442 5.08914 105.83 19.495 122.101C31.8234 136.025 49.5082 143.457 68.2572 147.353Z" fill="#D7D7D7" fill-opacity="0.2"/>
<path d="M4.2619 146.998H141.759" stroke="#485070" stroke-width="0.92548" stroke-miterlimit="10"/>
<path d="M71.5217 51.8217C73.884 54.5219 74.853 58.1629 75.6559 61.5727C76.6936 65.9801 77.7314 70.3875 78.7692 74.7949C79.0478 75.8215 79.2215 76.8737 79.2877 77.9354C79.2321 79.8015 78.9497 81.654 78.4467 83.4519C77.9332 85.5596 76.6719 85.4298 74.7944 85.2433C71.8253 84.9484 67.786 84.0502 65.7816 81.6288C64.8287 80.4779 64.5226 78.9397 64.248 77.4709C63.8705 75.4513 63.493 73.4317 63.1155 71.4122C61.573 63.1606 60.0312 54.6492 61.7764 46.4381C65.5746 46.9783 69.0423 48.894 71.5217 51.8217V51.8217Z" fill="white"/>
<path d="M75.8853 77.9182C77.198 78.5406 78.4546 79.3425 79.7186 80.1032C81.7256 81.3111 83.82 82.161 85.8759 83.2835C86.4378 83.6288 87.0519 83.881 87.6944 84.0304C88.7947 84.2247 89.9557 83.8108 91.0633 83.9592C92.5443 84.1579 93.8071 85.4784 94.344 87.2239C95.2481 90.1633 93.1312 89.0692 91.7284 88.8119C90.6345 88.6111 89.5406 88.4104 88.4466 88.2099C84.2044 87.462 79.9173 86.9953 75.6135 86.8129C73.2198 86.6888 69.0022 86.7443 67.2118 84.563C66.3419 83.5031 65.3789 78.8787 66.5245 77.731C66.7341 77.5412 66.9862 77.4047 67.2597 77.333C69.4834 76.5731 71.8905 76.5357 74.1368 77.2261C74.7354 77.4149 75.3197 77.6462 75.8853 77.9182V77.9182Z" fill="#9C5240"/>
<path d="M74.3296 111.92H32.3462C31.6844 111.92 31.0496 111.657 30.5816 111.189C30.1136 110.721 29.8507 110.086 29.8507 109.424V109.424C29.8507 108.762 30.1136 108.127 30.5816 107.659C31.0496 107.191 31.6844 106.928 32.3462 106.928H74.3296C74.9915 106.928 75.6263 107.191 76.0943 107.659C76.5623 108.127 76.8252 108.762 76.8252 109.424V109.424C76.8252 110.086 76.5623 110.721 76.0943 111.189C75.6263 111.657 74.9915 111.92 74.3296 111.92V111.92Z" fill="#485070"/>
<path d="M68.7898 64.2619V78.9957C68.7898 80.0621 68.3662 81.0849 67.6121 81.8389C66.858 82.593 65.8353 83.0166 64.7689 83.0166H31.936C30.8696 83.0166 29.8468 82.593 29.0927 81.8389C28.3387 81.0848 27.915 80.0621 27.915 78.9957V64.2618C27.915 63.7338 28.019 63.2109 28.2211 62.7231C28.4232 62.2353 28.7194 61.792 29.0927 61.4186C29.4661 61.0452 29.9094 60.7491 30.3972 60.547C30.885 60.3449 31.4079 60.2409 31.9359 60.2409H64.7689C65.8353 60.2409 66.858 60.6646 67.6121 61.4186C68.3662 62.1727 68.7898 63.1955 68.7898 64.2619V64.2619Z" fill="#485070"/>
<path d="M35.6867 79.3091H33.1478V109.611H35.6867V79.3091Z" fill="#485070"/>
<path d="M63.0747 79.3091H60.5358V109.611H63.0747V79.3091Z" fill="#485070"/>
<path d="M53.2917 110.667H50.7528V147.474H53.2917V110.667Z" fill="#485070"/>
<path d="M34.208 110.667H31.6691V147.474H34.208V110.667Z" fill="#485070"/>
<path d="M74.9051 110.667H72.3662V147.474H74.9051V110.667Z" fill="#485070"/>
<path d="M61.8779 110.667H59.339V147.474H61.8779V110.667Z" fill="#485070"/>
<path d="M100.305 123.583C98.8656 123.886 97.8764 123.958 96.1758 124.198C93.7031 124.546 91.2221 124.836 88.7347 125.05C89.3832 129.524 89.9738 133.458 90.1238 134.25C90.7736 137.676 90.4152 146.264 91.9447 149.522C93.6855 149.639 95.4339 149.566 97.1589 149.304C98.0832 140.715 98.8424 132.096 100.305 123.583Z" fill="#CF9378"/>
<path d="M87.335 131.122C87.3198 131.826 87.3736 132.53 87.4954 133.223C89.5733 135.258 92.3436 136.433 95.2512 136.513C96.8704 136.582 98.4887 136.357 100.027 135.847C100.209 132.495 100.409 129.144 100.624 125.793C100.903 121.434 101.129 117.076 101.671 112.739C102.057 108.842 102.079 104.919 101.735 101.018C100.624 96.7591 97.7952 95.5966 97.7952 95.5966C93.2418 93.807 88.5763 92.3173 83.8284 91.137C76.3936 89.5047 68.8359 88.2934 61.3581 86.6647C57.764 85.8818 51.7515 86.0266 49.8959 89.9561C47.7491 94.5022 52.029 100.545 55.4763 103.171C59.0426 105.886 63.4443 107.26 67.824 108.215C74.0288 109.567 80.372 110.177 86.7207 110.033C86.5174 110.033 87.3258 129.55 87.335 131.122Z" fill="#F25252"/>
<path d="M86.7103 110.069C86.7223 110.057 86.7357 110.046 86.7474 110.034C85.3658 108.662 84.0611 107.209 82.6799 105.838C80.6234 103.797 78.6263 101.693 76.5838 99.6378C72.5261 95.5539 68.4475 91.4905 64.4781 87.3202C63.437 87.1078 62.397 86.8893 61.3581 86.6647C57.7639 85.8817 51.7515 86.0266 49.8959 89.9561C47.7491 94.5022 52.029 100.545 55.4763 103.171C59.0426 105.886 63.4443 107.26 67.824 108.215C74.0287 109.567 80.372 110.177 86.7206 110.033C86.7165 110.033 86.7135 110.053 86.7103 110.069Z" fill="#485070"/>
<path d="M86.7678 111.279C86.7743 109.292 87.0443 106.866 87.0507 104.879" stroke="#485070" stroke-width="0.69411" stroke-miterlimit="10"/>
<path d="M91.872 93.6762C86.5536 91.9656 81.7012 90.3841 73.8948 89.3279" stroke="#485070" stroke-width="0.69411" stroke-miterlimit="10"/>
<path d="M91.0316 151.962H108.055V153.804H91.6419C91.48 153.804 91.3248 153.74 91.2103 153.626C91.0959 153.511 91.0316 153.356 91.0316 153.194V151.962Z" fill="#B3B3B3"/>
<path d="M107.815 152.462C107.877 152.377 107.93 152.286 107.976 152.192C108.135 151.717 108.138 151.203 107.982 150.726C107.827 150.25 107.523 149.836 107.114 149.546C106.265 148.952 105.304 148.536 104.29 148.324C102.194 147.685 100.057 147.193 97.8925 146.851C97.3126 146.771 91.1141 146.204 91.141 145.924C91.0453 147.487 90.9495 149.049 90.8537 150.612C90.7343 151.223 90.732 151.85 90.8467 152.462H107.815Z" fill="#485070"/>
<path d="M93.9594 144.634C94.4493 144.262 95.0432 144.054 95.6578 144.037C96.2724 144.02 96.8768 144.196 97.3863 144.54C97.8846 144.9 98.2843 145.38 98.5484 145.935C98.8125 146.49 98.9326 147.103 98.8976 147.716C98.91 147.945 98.8312 148.17 98.6784 148.341C98.4895 148.47 98.2605 148.529 98.0325 148.505C97.0549 148.517 96.0772 148.528 95.0994 148.54C94.4895 148.547 93.712 148.689 93.2873 148.14C92.5386 147.173 93.2333 145.36 93.9594 144.634Z" fill="#485070"/>
<path d="M100.408 147.299C100.12 147.275 99.8317 147.345 99.5861 147.498C99.3405 147.651 99.1506 147.878 99.0443 148.147" stroke="#B3B3B3" stroke-width="0.69411" stroke-miterlimit="10" stroke-linecap="round"/>
<path d="M100.763 148.788C100.916 148.541 101.129 148.337 101.381 148.193C101.633 148.048 101.917 147.969 102.208 147.963" stroke="#B3B3B3" stroke-width="0.69411" stroke-miterlimit="10" stroke-linecap="round"/>
<path d="M102.914 149.021C102.988 148.842 103.112 148.688 103.272 148.579C103.432 148.47 103.62 148.41 103.814 148.407" stroke="#B3B3B3" stroke-width="0.69411" stroke-miterlimit="10" stroke-linecap="round"/>
<path d="M72.0939 121.271C69.9146 121.578 67.7289 121.833 65.537 122.034C67.1931 130.181 67.957 138.475 69.3078 146.672C71.1675 146.665 72.8635 146.272 74.8408 146.315C75.2171 143.833 75.9749 129.093 77.1413 120.448C75.4773 120.826 73.7916 121.101 72.0939 121.271V121.271Z" fill="#CF9378"/>
<path d="M65.8639 132.865C66.3145 134.7 66.8394 135.825 68.647 136.542C70.2187 137.172 71.9201 137.411 73.6046 137.239C75.1172 136.997 76.5332 136.341 77.6959 135.344C77.6959 135.344 80.0286 100.566 77.1267 96.1095C73.576 90.6567 65.803 89.5379 59.7464 88.2085C54.4409 87.0437 49.073 86.0919 43.716 85.0511C42.4094 90.0105 43.3532 95.8414 45.2486 100.415L45.2779 100.485C46.0321 102.247 47.2527 103.769 48.8082 104.889C50.3636 106.008 52.195 106.682 54.1051 106.837C56.9427 107.079 59.7914 107.168 62.6386 107.104C62.6024 107.104 64.2513 126.296 65.8639 132.865Z" fill="#F25252"/>
<path d="M62.6854 108.351C62.6919 106.364 62.9619 103.938 62.9682 101.951" stroke="#485070" stroke-width="0.69411" stroke-miterlimit="10"/>
<path d="M68.8657 151.695H85.8892V153.538H69.476C69.3141 153.538 69.1589 153.473 69.0444 153.359C68.93 153.245 68.8657 153.089 68.8657 152.927V151.695V151.695Z" fill="#B3B3B3"/>
<path d="M85.6503 152.193C85.7116 152.107 85.7653 152.017 85.8107 151.922C85.9701 151.447 85.9724 150.934 85.8172 150.457C85.662 149.981 85.3575 149.567 84.9488 149.277C84.0999 148.682 83.1391 148.267 82.1246 148.055C80.0291 147.416 77.8914 146.923 75.7273 146.582C75.1474 146.502 68.9489 145.935 68.9758 145.654C68.8801 147.217 68.7843 148.78 68.6885 150.343C68.5691 150.953 68.5667 151.581 68.6815 152.193H85.6503Z" fill="#485070"/>
<path d="M71.7944 144.367C72.2843 143.996 72.8782 143.787 73.4928 143.77C74.1074 143.753 74.7118 143.929 75.2213 144.274C75.7196 144.633 76.1192 145.113 76.3834 145.668C76.6475 146.223 76.7676 146.836 76.7326 147.45C76.745 147.679 76.6661 147.903 76.5133 148.074C76.3244 148.204 76.0955 148.262 75.8676 148.238C74.8898 148.25 73.9121 148.262 72.9344 148.273C72.3244 148.281 71.547 148.422 71.1223 147.874C70.3735 146.906 71.0682 145.093 71.7944 144.367Z" fill="#485070"/>
<path d="M78.2416 147.032C77.9534 147.009 77.6652 147.079 77.4196 147.231C77.174 147.384 76.984 147.612 76.8777 147.881" stroke="#B3B3B3" stroke-width="0.69411" stroke-miterlimit="10" stroke-linecap="round"/>
<path d="M78.5964 148.521C78.7498 148.275 78.9622 148.07 79.2144 147.926C79.4666 147.782 79.7508 147.703 80.0412 147.696" stroke="#B3B3B3" stroke-width="0.69411" stroke-miterlimit="10" stroke-linecap="round"/>
<path d="M80.7493 148.754C80.8229 148.575 80.9474 148.422 81.1072 148.313C81.2671 148.204 81.4554 148.144 81.6489 148.14" stroke="#B3B3B3" stroke-width="0.69411" stroke-miterlimit="10" stroke-linecap="round"/>
<path d="M43.001 91.7725C43.151 92.5725 43.301 93.3726 43.4509 94.1725C46.213 92.7203 49.5168 93.0237 52.6375 93.0185C59.4987 92.999 66.2523 91.3119 72.3167 88.1026C71.9102 86.4496 71.664 84.7613 71.5816 83.0611C71.5723 81.3223 70.8537 79.6379 70.8537 77.8944C70.7396 75.5396 70.8306 73.1801 70.9464 70.8273C71.1656 66.3709 71.4676 61.8633 70.635 57.4799C70.1333 54.6024 68.9946 51.8735 67.3023 49.4929C66.5086 48.4177 65.4092 47.0246 64.1915 46.4062C62.9007 45.7506 60.9647 45.9701 59.5129 45.8416C58.4546 45.7022 57.3827 45.6997 56.3237 45.8341C55.0356 46.1147 53.8105 46.6315 52.7106 47.3583C46.6994 50.9643 45.9694 56.7792 44.1598 63.0381C43.2562 66.1644 41.8398 69.1237 40.9331 72.2491C40.4349 73.9979 40.2083 75.8128 40.2613 77.6305C40.3013 79.2724 40.9324 80.7362 41.2349 82.3498C41.8236 85.4907 42.4123 88.6316 43.001 91.7725Z" fill="white"/>
<path d="M60.0046 51.5571C61.1324 52.5085 62.581 52.9932 64.0543 52.9122C64.5636 52.9093 65.0602 52.7534 65.4798 52.4647C65.6855 52.3162 65.8399 52.1074 65.9217 51.8673C66.0035 51.6271 66.0086 51.3675 65.9363 51.1243" stroke="#485070" stroke-width="0.69411" stroke-miterlimit="10" stroke-linecap="round"/>
<path d="M58.6238 64.6686C59.2869 66.8085 60.4345 68.7666 61.9776 70.3907C63.5206 72.0148 65.4173 73.2612 67.5204 74.033" stroke="#485070" stroke-width="0.69411" stroke-miterlimit="10" stroke-linecap="round"/>
<path d="M62.5186 67.984C63.6268 69.3008 65.1961 70.1446 66.9058 70.3429" stroke="#485070" stroke-width="0.69411" stroke-miterlimit="10" stroke-linecap="round"/>
<path d="M54.8422 67.7255C56.3986 72.6264 59.1425 77.0665 62.8296 80.6507" stroke="#485070" stroke-width="0.69411" stroke-miterlimit="10" stroke-linecap="round"/>
<path d="M68.6775 51.3209C70.4038 54.2923 70.4264 55.9824 70.8142 58.604C71.2481 61.5374 71.4467 64.5007 71.4082 67.4658C71.3432 72.4364 70.2453 76.9897 71.3556 81.9196" stroke="#485070" stroke-width="0.69411" stroke-miterlimit="10"/>
<path d="M65.0628 44.9134C65.3219 44.0879 65.6821 43.2977 66.1351 42.5606C64.7926 42.5197 63.4932 42.0778 62.404 41.2919C61.8659 40.8961 61.3635 40.4538 60.9026 39.9701C60.7361 39.8005 60.4832 39.3689 60.2174 39.0586C59.9416 42.0474 58.8285 44.858 56.2795 46.5647C57.208 48.1083 58.539 49.3704 60.1297 50.2156C61.4589 50.9865 64.7708 52.4758 64.8445 49.7831C64.8686 48.9018 64.5189 48.0879 64.5945 47.1929C64.6657 46.4181 64.8228 45.6536 65.0628 44.9134V44.9134Z" fill="#CF9378"/>
<path d="M64.5866 47.4319C64.5871 47.3525 64.587 47.2733 64.5938 47.1929C64.7519 45.5524 65.2785 43.9689 66.1344 42.5606C64.792 42.5197 63.4925 42.0778 62.4034 41.2919C61.8652 40.8961 61.3628 40.4538 60.9019 39.9701C60.7355 39.8005 60.4826 39.3689 60.2168 39.0586C60.1763 39.4966 60.1155 39.9298 60.0372 40.3572C60.1748 41.8143 60.6596 43.2171 61.4512 44.448C62.2428 45.679 63.318 46.7022 64.5866 47.4319V47.4319Z" fill="#9C5240"/>
<path d="M45.0388 51.8217C42.6765 54.5219 41.7075 58.1629 40.9046 61.5727C39.867 65.98 38.8292 70.3873 37.7913 74.7946C37.4318 76.3216 36.8546 78.41 37.193 79.9694C37.4053 80.8286 37.7852 81.6374 38.3109 82.3494C38.8366 83.0614 39.4978 83.6625 40.2565 84.1182C41.8251 85.0599 44.213 85.4895 45.9356 84.6893C47.6234 83.9054 49.5545 83.1081 50.779 81.6288C51.7318 80.4779 52.0379 78.9397 52.3125 77.4709C52.6901 75.4513 53.0676 73.4317 53.4451 71.4122C54.9876 63.1606 56.5293 54.6492 54.7842 46.4381C50.9859 46.9784 47.5182 48.894 45.0388 51.8217V51.8217Z" fill="white"/>
<path d="M54.8668 60.012C51.4346 60.9057 51.7423 65.2978 51.4314 68.0067C50.9718 72.0101 50.2091 75.9729 49.1497 79.8608" stroke="#485070" stroke-width="0.69411" stroke-miterlimit="10"/>
<path d="M52.29 62.2687C52.6757 61.0687 53.3996 60.0055 54.3747 59.2067" stroke="#485070" stroke-width="0.69411" stroke-miterlimit="10"/>
<path d="M50.2624 78.7173C52.1032 79.1196 53.9093 79.7079 55.7161 80.2545C58.5851 81.1224 61.4915 81.6229 64.4058 82.3985C65.2259 82.6512 66.0744 82.8002 66.9315 82.8419C68.4047 82.8559 69.8274 82.26 71.3003 82.2276C72.2863 82.229 73.2564 82.4757 74.1231 82.9457C74.9898 83.4156 75.7259 84.094 76.2649 84.9195C78.0673 87.6742 75.0797 86.9365 73.1994 86.9091C71.7332 86.8877 70.2669 86.8663 68.8006 86.845C63.1267 86.7919 57.4537 87.0236 51.803 87.5392C48.6617 87.8032 43.185 88.5393 40.3906 86.6758C39.0328 85.7704 36.7947 81.3622 38.0411 80.0445C38.2914 79.8129 38.5889 79.6384 38.9131 79.533C41.7461 78.4102 44.8095 77.9929 47.8396 78.3168C48.654 78.4056 49.4628 78.5393 50.2624 78.7173V78.7173Z" fill="#CF9378"/>
<path d="M60.487 93.0931H98.5726C98.7767 93.0931 98.9724 93.1741 99.1167 93.3185C99.261 93.4628 99.3421 93.6585 99.3421 93.8626V94.1247C99.3421 94.3288 99.2611 94.5245 99.1168 94.6688C98.9725 94.8131 98.7767 94.8942 98.5727 94.8942H60.487C60.2829 94.8942 60.0872 94.8131 59.9429 94.6688C59.7986 94.5245 59.7176 94.3288 59.7176 94.1248V93.8625C59.7176 93.6584 59.7986 93.4627 59.9429 93.3184C60.0872 93.1741 60.283 93.0931 60.487 93.0931V93.0931Z" fill="#C5C5C6"/>
<path d="M103.347 94.8961H69.4857L72.432 75.4388C72.4784 75.1145 72.6391 74.8175 72.8852 74.6013C73.1312 74.385 73.4464 74.2637 73.7739 74.2592H104.951C105.142 74.2612 105.33 74.3046 105.503 74.3864C105.675 74.4682 105.828 74.5865 105.95 74.7331C106.073 74.8797 106.162 75.051 106.211 75.2354C106.261 75.4198 106.27 75.6127 106.238 75.8009L103.347 94.8961Z" fill="#C5C5C6"/>
<path d="M91.4632 84.1769C91.4632 84.622 91.3312 85.057 91.0839 85.427C90.8367 85.797 90.4853 86.0854 90.0741 86.2557C89.663 86.426 89.2106 86.4706 88.7741 86.3837C88.3377 86.2969 87.9368 86.0826 87.6221 85.768C87.3074 85.4533 87.0931 85.0524 87.0063 84.6159C86.9195 84.1795 86.964 83.727 87.1343 83.3159C87.3046 82.9048 87.593 82.5533 87.963 82.3061C88.3331 82.0589 88.7681 81.9269 89.2131 81.9269C89.8099 81.9269 90.3821 82.164 90.8041 82.5859C91.2261 83.0079 91.4631 83.5802 91.4632 84.1769V84.1769Z" fill="#F5F6F8"/>
<path d="M71.7717 32.5275C71.3841 31.0166 69.7641 32.3335 68.2888 31.8263C67.0056 31.385 66.0286 30.9899 64.656 31.2285C63.4142 31.4199 62.2872 32.0643 61.4924 33.0374C61.2856 33.3045 61.0985 33.5748 60.9272 33.8455C60.4587 34.8004 60.0775 35.7956 59.7882 36.8191L59.7807 36.8871C59.8477 38.7974 60.4842 40.6441 61.6085 42.19C62.1104 42.9274 62.8003 43.5171 63.6067 43.8983C64.4132 44.2794 65.3068 44.4381 66.1952 44.3578C67.2079 44.2371 68.1441 43.7587 68.8352 43.0087C69.5844 42.1615 70.1764 41.1874 70.5835 40.1323C71.2579 38.5516 72.1986 34.1923 71.7717 32.5275Z" fill="#CF9378"/>
<path d="M64.629 34.0109C64.6436 33.9443 64.6545 33.8688 64.6726 33.7832C64.7991 33.1811 64.4962 32.7129 64.5656 32.1138C64.5781 31.919 64.6505 31.7329 64.773 31.5808C64.8954 31.4288 65.0618 31.3183 65.2495 31.2646C65.5862 31.2453 65.9186 31.3483 66.1853 31.5547C67.2083 32.1708 68.2313 32.7868 69.2543 33.4029C69.6659 33.624 70.1191 33.7571 70.5849 33.7935C71.0508 33.83 71.5191 33.7691 71.9602 33.6146C72.4012 33.4602 72.8052 33.2157 73.1466 32.8966C73.4879 32.5775 73.7592 32.1908 73.9429 31.7612C74.2248 30.999 74.2287 30.1618 73.9539 29.397C73.6792 28.6322 73.1433 27.989 72.4408 27.5805C72.5029 27.6104 72.5568 27.6552 72.5976 27.7108C72.6384 27.7664 72.6649 27.8312 72.6748 27.8994C72.6846 27.9677 72.6776 28.0373 72.6543 28.1022C72.631 28.1671 72.592 28.2253 72.5409 28.2716C72.4263 28.3559 72.2892 28.4039 72.147 28.4094C72.0049 28.415 71.8644 28.3779 71.7436 28.3029C71.505 28.1487 71.293 27.9569 71.1157 27.7349C68.9838 25.4405 65.2686 24.8685 62.7233 26.7862C62.326 27.0793 61.9753 27.4307 61.683 27.8286C61.5507 28.0134 60.9906 29.0246 61.217 29.2197C61.0302 29.0836 60.8065 29.0073 60.5754 29.0009C60.3443 28.9946 60.1168 29.0585 59.9228 29.1842C59.5393 29.4439 59.2298 29.7987 59.0247 30.214C58.0593 31.9374 57.6993 33.9345 58.0023 35.8865C58.1631 36.7185 58.4196 37.529 58.7666 38.302C59.0282 38.958 59.451 39.6897 60.2473 39.7071C61.3474 39.7309 61.2253 37.886 61.5378 36.9334C61.6603 36.5598 61.6331 36.0917 62.0791 35.9797C62.531 35.8662 63.2592 36.7233 63.6069 36.0218C63.7004 35.7534 63.7034 35.4619 63.6153 35.1917C63.5275 34.9207 63.5463 34.6263 63.668 34.3687C63.6827 34.3458 64.2506 34.3707 64.3363 34.341C64.4129 34.3223 64.482 34.2807 64.5343 34.2217C64.5866 34.1627 64.6197 34.0892 64.629 34.0109V34.0109Z" fill="#485070"/>
<path d="M59.6556 36.7804C59.6556 37.1389 59.762 37.4894 59.9612 37.7875C60.1603 38.0856 60.4435 38.318 60.7747 38.4552C61.106 38.5924 61.4705 38.6283 61.8221 38.5584C62.1738 38.4884 62.4968 38.3158 62.7503 38.0623C63.0038 37.8087 63.1765 37.4857 63.2464 37.1341C63.3164 36.7824 63.2805 36.4179 63.1433 36.0867C63.0061 35.7554 62.7738 35.4723 62.4757 35.2731C62.1776 35.0739 61.8271 34.9676 61.4685 34.9676C61.2305 34.9675 60.9947 35.0144 60.7748 35.1055C60.5548 35.1966 60.355 35.3301 60.1866 35.4985C60.0183 35.6668 59.8847 35.8667 59.7936 36.0866C59.7025 36.3066 59.6556 36.5423 59.6556 36.7804V36.7804Z" fill="#CF9378"/>
<path d="M61.1156 36.0055C61.2475 35.9884 61.3815 36.0054 61.505 36.0548C61.6284 36.1043 61.7371 36.1845 61.8208 36.2878C61.9045 36.3911 61.9603 36.5142 61.9829 36.6452C62.0056 36.7762 61.9943 36.9109 61.9502 37.0363C61.8713 36.964 61.7724 36.9172 61.6665 36.902C61.5606 36.8868 61.4525 36.9039 61.3565 36.9511C61.2604 36.9982 61.1808 37.0732 61.1281 37.1663C61.0754 37.2594 61.0519 37.3662 61.0608 37.4728" stroke="#485070" stroke-width="0.69411" stroke-linecap="round" stroke-linejoin="round"/>
<path d="M28.3177 112.036C28.3203 119.403 21.9673 125.398 14.2106 125.383C6.33201 125.367 0.861515 119.686 0.123497 113.693C-0.143867 111.8 0.0242061 109.871 0.614905 108.053C1.2056 106.234 2.20336 104.575 3.53222 103.201C4.87831 101.723 6.52596 100.551 8.36386 99.7646C10.2018 98.9782 12.1871 98.5955 14.1856 98.6423C21.9005 98.6557 28.3637 104.551 28.3177 112.036Z" fill="#F25252"/>
<path d="M16.243 117.137C14.9875 117.137 13.7319 117.137 12.4764 117.136C12.025 117.135 11.8594 116.999 11.863 116.573C11.8787 114.727 11.7733 112.878 11.9178 111.035C12.0288 109.856 12.5068 108.742 13.2844 107.849C13.8048 107.205 14.3692 106.599 14.9735 106.033C15.0684 105.954 15.1442 105.854 15.1951 105.741C15.246 105.629 15.2707 105.506 15.2673 105.382C15.2621 105.066 15.2947 104.749 15.2868 104.433C15.2625 104.251 15.3006 104.065 15.3952 103.907C15.4897 103.749 15.635 103.627 15.8074 103.562C15.9986 103.485 16.2079 103.464 16.4105 103.502C16.613 103.541 16.8002 103.637 16.9499 103.778C17.2375 104.065 17.4293 104.433 17.4992 104.833C17.7229 105.799 17.5891 106.814 17.1227 107.69C16.9772 107.997 16.8448 108.31 16.6822 108.608C16.5756 108.803 16.6581 108.872 16.8425 108.899C16.9394 108.909 17.0368 108.912 17.1341 108.907C18.2597 108.905 19.3854 108.903 20.511 108.9C20.7661 108.872 21.0229 108.934 21.2375 109.075C21.4521 109.215 21.611 109.426 21.6872 109.671C21.7703 109.94 21.7594 110.229 21.6563 110.491C21.5532 110.753 21.3641 110.971 21.12 111.111C20.8975 111.223 20.9041 111.271 21.0984 111.4C21.3048 111.501 21.4739 111.666 21.5819 111.869C21.6898 112.072 21.7311 112.304 21.6998 112.532C21.6812 112.716 21.6064 112.889 21.4858 113.029C21.3652 113.168 21.2046 113.267 21.0257 113.312C20.949 113.335 20.8309 113.329 20.816 113.424C20.8004 113.523 20.9233 113.539 20.9874 113.584C21.1294 113.685 21.242 113.822 21.3136 113.981C21.3852 114.14 21.4133 114.315 21.3949 114.488C21.3765 114.662 21.3124 114.827 21.209 114.967C21.1057 115.108 20.9669 115.218 20.8068 115.287C20.6541 115.347 20.5864 115.382 20.7478 115.528C20.8984 115.664 20.999 115.847 21.0333 116.048C21.0676 116.248 21.0337 116.454 20.937 116.633C20.8534 116.802 20.7189 116.94 20.5523 117.028C20.3858 117.116 20.1958 117.149 20.0094 117.122C18.7539 117.118 17.4985 117.121 16.243 117.121V117.137Z" fill="#FDFDFE"/>
<path d="M10.3449 118.192C9.30677 118.195 8.26876 118.196 7.23074 118.202C7.17019 118.209 7.10882 118.203 7.05063 118.185C6.99244 118.167 6.93872 118.136 6.89297 118.096C6.84721 118.056 6.81043 118.006 6.78503 117.951C6.75962 117.896 6.74617 117.835 6.74551 117.775C6.73419 117.632 6.73154 117.489 6.7376 117.347C6.73829 115.297 6.73949 113.248 6.74118 111.198C6.74187 110.692 6.87649 110.569 7.41693 110.568C8.34706 110.567 9.27722 110.566 10.2073 110.569C10.5803 110.571 10.7713 110.724 10.7716 111.059C10.774 113.21 10.7665 115.361 10.7619 117.512C10.7602 117.523 10.757 117.532 10.7525 117.542C10.6941 117.559 10.7011 117.579 10.75 117.6C10.7682 117.832 10.7611 118.052 10.4778 118.152C10.4695 118.088 10.4461 118.016 10.3661 118.039C10.2742 118.064 10.3574 118.14 10.3449 118.192Z" fill="#FDFDFE"/>
<path d="M85.9844 1.89185L84.3555 6.90534H79.0842L83.3487 10.0033L81.7198 15.0168L85.9844 11.9182L90.249 15.0168L88.6201 10.0033L92.8847 6.90534H87.6133L85.9844 1.89185Z" fill="#F25252"/>
<path d="M109.801 61.4394L108.67 64.9173H105.014L107.972 67.0667L106.842 70.5446L109.801 68.3952L112.759 70.5446L111.629 67.0667L114.587 64.9173H110.93L109.801 61.4394Z" fill="#F25252"/>
<path d="M22.4446 32.0238L52.2693 32.0238C53.899 32.0238 55.22 30.7028 55.22 29.0731L55.22 2.95069C55.22 1.32107 53.899 0 52.2693 0L22.4446 0C20.815 0 19.4939 1.32107 19.4939 2.95069L19.4939 29.0731C19.4939 30.7028 20.815 32.0238 22.4446 32.0238Z" fill="#F25252"/>
<path d="M50.7204 21.5822H23.9932" stroke="white" stroke-width="1.01802" stroke-miterlimit="10" stroke-linecap="round"/>
<path d="M50.7204 18.6842H23.9932" stroke="white" stroke-width="1.01802" stroke-miterlimit="10" stroke-linecap="round"/>
<path d="M50.7204 15.7809H23.9932" stroke="white" stroke-width="1.01802" stroke-miterlimit="10" stroke-linecap="round"/>
<path d="M25.8428 23.5536L25.3209 25.1598H23.6317L24.9979 26.1529L24.4759 27.7592L25.8428 26.7668L27.209 27.7592L26.6871 26.1529L28.054 25.1598H26.3647L25.8428 23.5536Z" fill="#FBCD39"/>
<path d="M31.5998 23.5536L31.0779 25.1598H29.3887L30.7549 26.1529L30.233 27.7592L31.5998 26.7668L32.966 27.7592L32.4441 26.1529L33.811 25.1598H32.1218L31.5998 23.5536Z" fill="#FBCD39"/>
<path d="M37.3568 23.5536L36.8348 25.1598H35.1456L36.5125 26.1529L35.9906 27.7592L37.3568 26.7668L38.7236 27.7592L38.2017 26.1529L39.5679 25.1598H37.8787L37.3568 23.5536Z" fill="#FBCD39"/>
<path d="M43.1142 23.5536L42.5923 25.1598H40.9031L42.27 26.1529L41.748 27.7592L43.1142 26.7668L44.4811 27.7592L43.9592 26.1529L45.3254 25.1598H43.6362L43.1142 23.5536Z" fill="white" fill-opacity="0.7"/>
<path d="M48.8712 23.5536L48.3493 25.1598H46.6601L48.0263 26.1529L47.5044 27.7592L48.8712 26.7668L50.2374 27.7592L49.7155 26.1529L51.0824 25.1598H49.3932L48.8712 23.5536Z" fill="white" fill-opacity="0.7"/>
<path d="M41.9337 9.1321C41.9337 10.0373 41.6653 10.9221 41.1624 11.6747C40.6595 12.4273 39.9448 13.0138 39.1085 13.3602C38.2722 13.7066 37.3521 13.7972 36.4643 13.6206C35.5765 13.444 34.7611 13.0082 34.1211 12.3681C33.481 11.7281 33.0452 10.9126 32.8686 10.0248C32.692 9.13709 32.7826 8.21689 33.129 7.38064C33.4754 6.54439 34.062 5.82963 34.8146 5.32676C35.5672 4.82388 36.452 4.55548 37.3572 4.55548C37.9582 4.55548 38.5533 4.67386 39.1086 4.90385C39.6638 5.13385 40.1684 5.47097 40.5933 5.89595C41.0183 6.32092 41.3554 6.82544 41.5854 7.3807C41.8154 7.93596 41.9338 8.53109 41.9337 9.1321V9.1321Z" fill="white"/>
<path d="M133.878 61.7746C127.167 61.6669 125.113 68.6714 124.314 74.0589C122.627 85.4367 121.443 98.5647 120.764 110.047C120.426 115.758 119.979 120.583 119.79 126.302C119.59 132.174 119.273 142.333 119.528 148.174C119.517 148.237 119.521 148.302 119.539 148.363C119.558 148.424 119.59 148.48 119.635 148.526C119.679 148.572 119.734 148.607 119.795 148.628C119.855 148.648 119.92 148.654 119.983 148.645C122.445 148.908 124.926 148.943 127.395 148.75C127.512 148.751 127.626 148.72 127.727 148.661C127.833 148.583 126.884 148.212 126.925 148.086C128.813 142.257 130.104 131.834 130.697 125.742C131.936 113.003 134.582 100.607 139.333 88.8391C144.083 77.7252 146.767 61.9816 133.878 61.7746Z" fill="#2B478B"/>
<path d="M133.878 61.7745C133.406 61.767 132.934 61.7984 132.467 61.8683V112.958C133.928 104.705 136.229 96.6238 139.333 88.8389C144.084 77.7251 146.768 61.9814 133.878 61.7745Z" fill="#233862"/>
<path d="M127.19 153.648H110.178V151.738H127.822V153.015C127.822 153.098 127.806 153.181 127.774 153.257C127.742 153.334 127.696 153.404 127.637 153.463C127.578 153.521 127.508 153.568 127.432 153.6C127.355 153.632 127.273 153.648 127.19 153.648Z" fill="#485070"/>
<path d="M110.426 152.258C110.362 152.17 110.307 152.076 110.26 151.978C110.094 151.486 110.092 150.953 110.253 150.46C110.414 149.966 110.729 149.537 111.153 149.237C112.033 148.62 113.029 148.189 114.08 147.97C116.252 147.307 118.468 146.797 120.711 146.443C121.312 146.361 127.736 145.772 127.708 145.482C127.807 147.102 127.907 148.722 128.006 150.341C128.13 150.974 128.132 151.625 128.013 152.258H110.426Z" fill="#C45446"/>
<path d="M124.787 144.483C124.279 144.185 123.663 144.018 123.026 144.004C122.389 143.991 121.763 144.132 121.235 144.408C120.718 144.697 120.304 145.082 120.03 145.527C119.757 145.972 119.632 146.464 119.668 146.956C119.656 147.14 119.737 147.32 119.896 147.457C120.091 147.561 120.329 147.608 120.565 147.589C121.578 147.598 122.592 147.608 123.605 147.617C124.237 147.623 125.043 147.736 125.483 147.296C126.259 146.52 125.539 145.066 124.787 144.483Z" fill="#C45446"/>
<path d="M118.104 146.906C118.402 146.882 118.701 146.954 118.956 147.112C119.21 147.27 119.407 147.506 119.517 147.785" stroke="#485070" stroke-width="0.95921" stroke-miterlimit="10" stroke-linecap="round"/>
<path d="M117.737 148.449C117.578 148.194 117.358 147.981 117.096 147.832C116.835 147.683 116.54 147.601 116.239 147.594" stroke="#485070" stroke-width="0.95921" stroke-miterlimit="10" stroke-linecap="round"/>
<path d="M115.505 148.691C115.428 148.505 115.299 148.346 115.134 148.233C114.968 148.12 114.773 148.058 114.572 148.054" stroke="#485070" stroke-width="0.95921" stroke-miterlimit="10" stroke-linecap="round"/>
<path d="M136.083 106.332C137.448 119.94 139.938 133.906 141.497 147.501C144.686 147.776 145.841 147.566 148.938 147.042C150.968 132.253 151.828 125.115 149.997 110.113C149.809 108.573 149.97 95.819 149.916 94.181C149.591 84.4298 150.894 71.6232 145.037 63.3891C143.558 61.3096 141.135 59.7138 138.672 59.9066C137.824 59.9884 137.005 60.2576 136.274 60.6949C135.543 61.1321 134.918 61.7264 134.445 62.4347C131.419 66.5408 133.107 77.6984 133.645 82.5693C134.359 89.0274 135.432 99.8463 136.083 106.332Z" fill="#2B478B"/>
<path d="M148.694 153.801H131.682V151.892H149.326V153.169C149.326 153.337 149.26 153.498 149.141 153.616C149.023 153.735 148.862 153.801 148.694 153.801V153.801Z" fill="#485070"/>
<path d="M131.93 152.415C131.866 152.326 131.811 152.233 131.764 152.135C131.599 151.642 131.596 151.11 131.757 150.616C131.918 150.122 132.233 149.693 132.657 149.393C133.537 148.777 134.533 148.346 135.584 148.126C137.756 147.463 139.972 146.953 142.215 146.599C142.816 146.517 149.24 145.928 149.212 145.638C149.311 147.258 149.411 148.878 149.51 150.498C149.634 151.13 149.636 151.781 149.517 152.415H131.93Z" fill="#C45446"/>
<path d="M146.292 144.504C145.784 144.193 145.168 144.018 144.531 144.004C143.894 143.99 143.268 144.138 142.74 144.425C142.223 144.727 141.809 145.128 141.535 145.592C141.262 146.057 141.137 146.569 141.173 147.083C141.161 147.274 141.242 147.462 141.401 147.605C141.596 147.713 141.834 147.762 142.07 147.743C143.083 147.752 144.097 147.762 145.11 147.772C145.742 147.778 146.548 147.896 146.988 147.437C147.764 146.628 147.044 145.111 146.292 144.504Z" fill="#C45446"/>
<path d="M139.609 147.062C139.907 147.038 140.206 147.11 140.461 147.268C140.715 147.427 140.912 147.663 141.022 147.941" stroke="#485070" stroke-width="0.95921" stroke-miterlimit="10" stroke-linecap="round"/>
<path d="M139.24 148.606C139.081 148.35 138.861 148.138 138.6 147.988C138.338 147.839 138.044 147.757 137.743 147.75" stroke="#485070" stroke-width="0.95921" stroke-miterlimit="10" stroke-linecap="round"/>
<path d="M137.01 148.844C136.933 148.659 136.804 148.499 136.639 148.386C136.473 148.273 136.278 148.211 136.077 148.208" stroke="#485070" stroke-width="0.95921" stroke-miterlimit="10" stroke-linecap="round"/>
<path d="M135.196 76.8636C135.218 76.8672 135.24 76.8703 135.261 76.8738C135.875 76.9737 136.49 77.0641 137.105 77.1414C137.558 77.1982 138.011 77.245 138.466 77.2872C138.615 77.3011 138.764 77.3143 138.913 77.3269C139.292 77.3582 139.672 77.3849 140.052 77.4068C140.267 77.4191 140.482 77.4278 140.697 77.437C140.865 77.4441 141.033 77.4531 141.202 77.4538C143.965 77.5706 146.733 77.3893 149.457 76.9132C149.702 76.8699 149.071 71.3804 148.952 70.8791C148.5 68.9022 147.813 66.9865 146.905 65.173C145.609 62.6302 143.548 60.2534 140.754 59.2914C137.229 58.0773 133.279 59.0867 130.29 61.1638C126.82 63.5757 125.426 67.4265 124.61 71.3956C124.395 72.4375 124.12 73.3029 125.176 73.8247C126.289 74.3616 127.434 74.83 128.604 75.2274C130.75 75.9618 132.956 76.5093 135.196 76.8636Z" fill="#BD3838"/>
<path d="M153.728 26.6067C153.287 26.0524 152.696 25.5241 152.661 24.8167C152.604 23.6771 154.023 22.8966 154.038 21.7556C154.051 20.7974 153.089 20.1449 152.212 19.7578C151.336 19.3707 150.322 18.9567 150.009 18.0511C149.749 17.2975 150.081 16.4848 150.189 15.6947C150.285 14.8935 150.152 14.0814 149.804 13.3532C149.456 12.625 148.908 12.0109 148.224 11.5826C146.759 10.6966 144.981 11.7571 143.497 11.9718C142.721 12.0885 141.987 12.3961 141.36 12.8668C140.732 13.3375 140.232 13.9567 139.903 14.6687C139.25 16.1143 138.907 17.6807 138.897 19.2669C138.889 20.8481 138.769 22.4267 138.538 23.9909C138.15 25.6331 137.462 27.1892 136.507 28.5805C135.796 29.6596 135.513 30.9652 135.714 32.2419C136.019 33.3858 137.057 34.1649 138.067 34.7817C140.001 36.0364 142.182 36.8603 144.462 37.1975C146.636 37.496 148.845 37.0044 150.687 35.8122C151.872 35.2913 152.9 34.4685 153.667 33.426C155.087 31.4418 155.246 28.5164 153.728 26.6067Z" fill="#485070"/>
<path d="M144.818 15.9041C144.824 16.4025 144.73 16.8971 144.542 17.3586C144.354 17.8202 144.075 18.2395 143.723 18.5919C143.622 18.7205 143.488 18.8194 143.336 18.8778C143.183 18.9363 143.018 18.9521 142.857 18.9237C142.502 18.799 142.409 18.3474 142.389 17.9718C142.334 16.9361 142.405 15.8976 142.599 14.8789C142.719 14.2551 143.135 13.1845 143.944 13.6337C144.572 13.9818 144.808 15.2685 144.818 15.9041Z" fill="#D57070"/>
<path d="M139.997 30.9786C138.959 32.8351 135.695 32.9037 134.541 30.0585C134.399 29.7095 134.277 29.3497 134.161 28.9899C132.187 28.8277 129.179 28.8784 127.514 30.1539C126.992 30.6128 126.567 31.1702 126.262 31.7941C125.003 34.0113 123.848 36.2941 122.799 38.6427C122.658 38.9038 122.582 39.1954 122.578 39.4924C122.641 39.8493 122.798 40.1831 123.032 40.4593C125.065 43.4519 126.42 60.275 126.42 60.275C126.42 60.275 124.827 67.707 124.052 72.4685C128.199 74.0921 146.936 75.035 149.565 73.6526C149.565 70.5736 147.588 66.6401 147.442 62.0799C147.227 55.3896 148.462 47.9847 149.003 43.3689C149.387 40.08 148.999 36.7212 148.628 33.4225C148.541 32.6501 148.706 30.9772 148.335 30.3831C147.841 29.5916 141.438 28.7589 140.781 28.5873C140.705 28.9884 140.623 29.388 140.534 29.7859C140.416 30.2082 140.235 30.6103 139.997 30.9786V30.9786Z" fill="#D57070"/>
<path d="M134.154 25.1816C134.123 24.3464 133.99 23.5182 133.756 22.7157C135.017 23.0206 136.341 22.941 137.556 22.4871C138.159 22.2559 138.74 21.9722 139.293 21.6394C139.491 21.5239 139.837 21.1864 140.164 20.9654C139.722 21.264 139.944 23.689 139.986 24.1832C140.055 25.2336 140.321 26.2615 140.772 27.213C141.236 28.1363 141.639 28.3811 141.469 29.4602C141.247 30.6256 140.767 31.7265 140.064 32.6826C139.686 33.2959 139.12 33.7697 138.449 34.0324C138.042 34.1265 137.621 34.1367 137.21 34.0623C136.799 33.9878 136.408 33.8304 136.06 33.5997C134.841 32.8954 133.339 31.3056 133.246 29.8042C133.197 29.0171 133.574 28.7247 133.842 28.0057C134.127 27.0934 134.233 26.1343 134.154 25.1816V25.1816Z" fill="#FFC1A6"/>
<path d="M133.953 27.6493C133.973 27.5753 133.993 27.5015 134.008 27.4248C134.28 25.8562 134.194 24.2464 133.756 22.7157C135.017 23.0206 136.341 22.941 137.556 22.4871C138.158 22.2559 138.74 21.9722 139.293 21.6394C139.491 21.5239 139.837 21.1864 140.164 20.9654C140.089 21.3837 140.035 21.8029 139.999 22.221C139.499 23.5432 138.689 24.7262 137.637 25.6707C136.585 26.6152 135.322 27.2937 133.953 27.6493V27.6493Z" fill="#E3856D"/>
<path d="M128.162 15.9583C128.109 18.1591 128.778 20.3167 130.066 22.1024C130.396 22.5995 130.829 23.0206 131.335 23.3379C131.589 23.4941 131.876 23.5907 132.173 23.6204C132.47 23.6501 132.769 23.612 133.049 23.5091C133.829 23.1776 134.187 22.2926 134.458 21.4901C135.014 20.0031 135.387 18.4538 135.567 16.8765C135.744 15.288 135.411 13.6843 134.615 12.2979C133.93 11.196 131.746 9.2718 130.317 10.1383C128.762 11.0803 128.205 14.3343 128.162 15.9583Z" fill="#485070"/>
<path d="M130.459 12.7213C131.07 11.3436 132.403 12.8565 133.89 12.6085C135.183 12.3927 136.176 12.172 137.446 12.6183C138.599 12.9987 139.57 13.7923 140.172 14.8461C140.326 15.1335 140.461 15.4209 140.581 15.7062C140.876 16.6906 141.08 17.6997 141.192 18.7209L141.189 18.7868C140.82 20.5962 139.919 22.2542 138.602 23.5478C138.006 24.1702 137.254 24.6221 136.425 24.8567C135.596 25.0912 134.72 25.0999 133.886 24.8818C132.94 24.6053 132.125 24.0001 131.586 23.1754C131.007 22.2488 130.598 21.2263 130.379 20.1561C129.988 18.5426 129.787 14.2392 130.459 12.7213Z" fill="#FFC1A6"/>
<path d="M136 17.1419C134.485 16.4462 133.054 15.5813 131.733 14.5634C130.782 13.7546 130.141 12.6407 129.92 11.4119C129.743 10.1675 130.289 9.48088 131.188 8.6936C132.503 7.57029 134.179 6.96057 135.908 6.97701C137.616 6.99477 139.441 8.15906 140.823 9.1097C141.807 9.74642 142.6 10.6389 143.117 11.6917C143.949 13.5356 143.662 16.2419 143.043 18.1145C142.757 18.8815 142.383 19.6129 141.929 20.2941C141.575 20.8773 141.056 21.507 140.295 21.3965C139.773 21.3207 139.157 19.6036 138.729 19.141C138.038 18.4268 137.242 17.8219 136.368 17.3472C136.246 17.2777 136.124 17.2092 136 17.1419Z" fill="#485070"/>
<path d="M141.325 18.7045C141.268 19.0462 141.111 19.3631 140.874 19.6154C140.636 19.8677 140.33 20.0439 139.992 20.1218C139.655 20.1997 139.302 20.1758 138.978 20.0531C138.654 19.9304 138.374 19.7144 138.172 19.4324C137.971 19.1504 137.858 18.8151 137.848 18.4689C137.837 18.1227 137.93 17.7811 138.113 17.4874C138.297 17.1937 138.563 16.961 138.879 16.8188C139.195 16.6765 139.546 16.6311 139.887 16.6883C140.114 16.7263 140.331 16.8085 140.526 16.9304C140.721 17.0523 140.89 17.2113 141.024 17.3986C141.157 17.5858 141.253 17.7975 141.305 18.0216C141.356 18.2457 141.363 18.4777 141.325 18.7045Z" fill="#FFC1A6"/>
<path d="M140.058 17.7309C139.935 17.6936 139.805 17.6884 139.679 17.7158C139.554 17.7432 139.437 17.8023 139.341 17.8874C139.245 17.9725 139.172 18.0809 139.13 18.2021C139.087 18.3233 139.077 18.4534 139.099 18.58C139.185 18.5237 139.287 18.4949 139.39 18.4973C139.494 18.4997 139.594 18.5332 139.678 18.5934C139.762 18.6536 139.826 18.7378 139.861 18.8349C139.896 18.932 139.902 19.0375 139.876 19.1377" stroke="#485070" stroke-width="0.71941" stroke-linecap="round" stroke-linejoin="round"/>
<path d="M123.437 56.7478L92.5249 56.7478C91.7138 56.7478 90.9359 56.4256 90.3624 55.852C89.7888 55.2785 89.4666 54.5006 89.4666 53.6895V26.615C89.4666 25.8039 89.7888 25.026 90.3624 24.4525C90.9359 23.8789 91.7138 23.5567 92.5249 23.5567L123.437 23.5567C123.838 23.5567 124.236 23.6358 124.607 23.7895C124.978 23.9432 125.315 24.1685 125.599 24.4525C125.883 24.7364 126.108 25.0736 126.262 25.4446C126.416 25.8157 126.495 26.2133 126.495 26.615V53.6896C126.495 54.0912 126.416 54.4889 126.262 54.8599C126.108 55.231 125.883 55.5681 125.599 55.8521C125.315 56.1361 124.978 56.3613 124.607 56.515C124.236 56.6687 123.838 56.7478 123.437 56.7478V56.7478Z" fill="url(#paint0_linear_132_37)"/>
<path d="M88.7838 30.2943C88.4869 30.6303 88.2138 30.9866 87.9664 31.3606C87.2076 32.5377 86.8064 36.0604 86.8064 36.0604C86.8064 36.0604 89.3973 43.5647 89.3921 43.7653C89.4145 42.9036 89.512 38.0373 89.512 38.0373C89.512 38.0373 90.641 37.2277 91.298 36.7966C92.7757 35.8268 94.0818 34.8351 93.392 32.8389C93.5899 33.4116 94.4833 33.126 94.6634 32.5109C94.7236 32.2132 94.7086 31.9053 94.6197 31.6149C94.5308 31.3245 94.3708 31.0609 94.1542 30.8481C93.519 30.138 92.6407 29.6918 91.6926 29.5977C90.6723 29.4973 89.6479 29.7427 88.7838 30.2943V30.2943Z" fill="#FFC1A6"/>
<path d="M121.832 45.9236H94.1301" stroke="#485070" stroke-width="1.43881" stroke-miterlimit="10" stroke-linecap="round"/>
<path d="M121.832 42.918H94.1301" stroke="#485070" stroke-width="1.43881" stroke-miterlimit="10" stroke-linecap="round"/>
<path d="M121.832 39.9124H94.1301" stroke="#485070" stroke-width="1.43881" stroke-miterlimit="10" stroke-linecap="round"/>
<path d="M96.047 47.9678L95.5059 49.6331H93.7549L95.1719 50.6625L94.6307 52.327L96.047 51.2983L97.4633 52.327L96.9221 50.6625L98.3391 49.6331H96.5881L96.047 47.9678Z" fill="#FBCD39"/>
<path d="M102.014 47.9678L101.472 49.6331H99.7222L101.138 50.6625L100.597 52.327L102.014 51.2983L103.43 52.327L102.889 50.6625L104.306 49.6331H102.555L102.014 47.9678Z" fill="#FBCD39"/>
<path d="M107.981 47.9678L107.44 49.6331H105.69L107.106 50.6625L106.565 52.327L107.981 51.2983L109.398 52.327L108.857 50.6625L110.273 49.6331H108.522L107.981 47.9678Z" fill="#FBCD39"/>
<path d="M113.948 47.9678L113.407 49.6331H111.656L113.073 50.6625L112.531 52.327L113.948 51.2983L115.365 52.327L114.823 50.6625L116.24 49.6331H114.489L113.948 47.9678Z" fill="#FBCD39"/>
<path d="M119.915 47.9678L119.374 49.6331H117.623L119.039 50.6625L118.499 52.327L119.915 51.2983L121.331 52.327L120.79 50.6625L122.206 49.6331H120.456L119.915 47.9678Z" fill="#485070" fill-opacity="0.5"/>
<path d="M112.724 33.0237C112.724 33.9618 112.446 34.8789 111.925 35.6589C111.403 36.439 110.662 37.0469 109.796 37.4059C108.929 37.7649 107.975 37.8589 107.055 37.6758C106.135 37.4928 105.29 37.0411 104.627 36.3777C103.963 35.7143 103.511 34.8691 103.328 33.949C103.145 33.0289 103.239 32.0752 103.598 31.2084C103.957 30.3417 104.565 29.6009 105.345 29.0797C106.125 28.5585 107.042 28.2803 107.981 28.2802C108.603 28.2802 109.22 28.4029 109.796 28.6413C110.371 28.8797 110.894 29.2291 111.335 29.6695C111.775 30.11 112.125 30.6329 112.363 31.2084C112.601 31.7839 112.724 32.4007 112.724 33.0237V33.0237Z" fill="#485070"/>
<path d="M153.19 33.9947C152.269 31.9141 150.19 30.5276 148.005 29.8924C147.969 29.8818 147.933 29.8715 147.896 29.8614C147.47 29.744 147.018 29.7637 146.604 29.9175C146.191 30.0714 145.835 30.3516 145.59 30.7185C144.182 32.9507 143.144 35.396 142.518 37.9597C142.339 38.6354 142.178 39.3281 142.046 40.0303C141.88 40.9361 142.004 41.8712 142.4 42.7025C142.428 42.7609 142.454 42.8195 142.479 42.8781C142.753 43.8623 142.858 44.8858 142.789 45.905C142.848 48.0404 142.66 50.1755 142.229 52.2676C141.911 53.807 141.501 55.5691 142.692 56.7577C143.051 57.0915 143.487 57.3318 143.961 57.4575C144.435 57.5831 144.933 57.5902 145.41 57.4781C147.116 57.1289 148.292 55.8014 149.251 54.4333C151.39 51.445 152.923 48.0674 153.766 44.4905C154.49 41.2379 154.567 37.1022 153.19 33.9947Z" fill="#D57070"/>
<path d="M140.559 49.0716C142.452 45.1576 144.345 41.2436 146.238 37.3295" stroke="#485070" stroke-width="0.65118" stroke-miterlimit="10"/>
<path d="M144.536 37.6958C144.615 38.4416 144.694 39.1873 144.773 39.933" stroke="#485070" stroke-width="0.65118" stroke-miterlimit="10"/>
<path d="M123.382 53.9182C123.705 53.8927 124.029 53.9199 124.342 53.9988C127.144 54.7025 129.944 55.1606 132.833 55.6491C134.766 55.9761 136.676 56.3837 138.561 56.8718C140.08 57.2648 141.741 58.0742 143.327 58.0622C145.007 58.0494 146.188 57.9034 147.321 56.8274C147.865 56.3124 148.38 55.7686 148.865 55.1986C149.171 54.9034 149.376 54.5186 149.45 54.0997C149.642 50.7785 145.453 49.8965 142.945 49.5345C138.998 48.9109 135.008 48.6052 131.013 48.6201C127.444 48.7627 123.889 49.1395 120.369 49.7481C119.087 49.865 117.839 50.2187 116.686 50.791C115.92 51.1924 115.334 51.8684 115.046 52.6835C114.757 53.4986 114.788 54.3925 115.131 55.1862C115.233 55.4312 115.396 55.6461 115.605 55.8103C115.813 55.9745 116.06 56.0827 116.323 56.1245C116.899 56.1775 117.465 55.556 117.062 55.2147C119.761 57.2041 120.691 54.1256 123.382 53.9182Z" fill="#FFC1A6"/>
<defs>
<linearGradient id="paint0_linear_132_37" x1="19393.6" y1="7409.73" x2="21392.8" y2="7409.73" gradientUnits="userSpaceOnUse">
<stop stop-color="white"/>
<stop offset="1" stop-color="white"/>
</linearGradient>
</defs>
</svg>
